lab1/log/waveform_3.vcd
$date
	Mon Oct 27 05:15:16 2025
$end
$version
	Icarus Verilog
$end
$timescale
	1s
$end
$scope module TestBench $end
$var reg 1 ! Clk $end
$var reg 1 " Reset $end
$var integer 32 # i [31:0] $end
$var integer 32 $ outfile [31:0] $end
$var integer 32 % start [31:0] $end
$scope module u_CPU $end
$var wire 1 ! clk_i $end
$var wire 1 " rst_i $end
$var wire 32 & rs2_data [31:0] $end
$var wire 5 ' rs2 [4:0] $end
$var wire 32 ( rs1_data [31:0] $end
$var wire 5 ) rs1 [4:0] $end
$var wire 1 * reg_write $end
$var wire 5 + rd [4:0] $end
$var wire 32 , pc_next [31:0] $end
$var wire 32 - pc_cur [31:0] $end
$var wire 7 . opcode [6:0] $end
$var wire 32 / instr [31:0] $end
$var wire 32 0 imm_ext [31:0] $end
$var wire 1 1 alu_src $end
$var wire 32 2 alu_result [31:0] $end
$var wire 2 3 alu_op [1:0] $end
$var wire 32 4 alu_data2 [31:0] $end
$var wire 3 5 alu_ctrl [2:0] $end
$scope module u_ALU $end
$var wire 32 6 data2_i [31:0] $end
$var wire 32 7 data1_i [31:0] $end
$var wire 3 8 ALUCtrl_i [2:0] $end
$var reg 32 9 data_o [31:0] $end
$upscope $end
$scope module u_ALU_Control $end
$var wire 10 : func_i [9:0] $end
$var wire 2 ; ALUOp_i [1:0] $end
$var reg 3 < ALUCtrl_o [2:0] $end
$upscope $end
$scope module u_Add_PC $end
$var wire 32 = data2_i [31:0] $end
$var wire 32 > data_o [31:0] $end
$var wire 32 ? data1_i [31:0] $end
$upscope $end
$scope module u_Control $end
$var wire 7 @ opcode_i [6:0] $end
$var reg 2 A ALUOp_o [1:0] $end
$var reg 1 1 ALUSrc_o $end
$var reg 1 * RegWrite_o $end
$upscope $end
$scope module u_Instruction_Memory $end
$var wire 32 B instr_o [31:0] $end
$var wire 32 C addr_i [31:0] $end
$upscope $end
$scope module u_MUX_ALUSrc $end
$var wire 1 1 select_i $end
$var wire 32 D data_o [31:0] $end
$var wire 32 E data2_i [31:0] $end
$var wire 32 F data1_i [31:0] $end
$upscope $end
$scope module u_PC $end
$var wire 1 ! clk_i $end
$var wire 32 G pc_i [31:0] $end
$var wire 1 " rst_i $end
$var reg 32 H pc_o [31:0] $end
$upscope $end
$scope module u_Registers $end
$var wire 5 I RDaddr_i [4:0] $end
$var wire 32 J RDdata_i [31:0] $end
$var wire 5 K RS1addr_i [4:0] $end
$var wire 32 L RS1data_o [31:0] $end
$var wire 5 M RS2addr_i [4:0] $end
$var wire 32 N RS2data_o [31:0] $end
$var wire 1 * RegWrite_i $end
$var wire 1 ! clk_i $end
$var wire 1 " rst_i $end
$var integer 32 O i [31:0] $end
$upscope $end
$scope module u_Sign_Extend $end
$var wire 12 P data_i [11:0] $end
$var wire 32 Q data_o [31:0] $end
$upscope $end
$upscope $end
$upscope $end
$enddefinitions $end
#0
$dumpvars
b11110 Q
b11110 P
b100000 O
b0 N
b11110 M
b0 L
b11110 K
b0 J
b1 I
b0 H
b100 G
b0 F
b11110 E
b0 D
b0 C
b1111011110000000010110011 B
b1 A
b110011 @
b0 ?
b100 >
b100 =
b11 <
b1 ;
b0 :
b0 9
b11 8
b0 7
b0 6
b11 5
b0 4
b1 3
b0 2
01
b11110 0
b1111011110000000010110011 /
b110011 .
b0 -
b100 ,
b1 +
1*
b11110 )
b0 (
b11110 '
b0 &
b0 %
b11 $
b100000000 #
0"
0!
$end
#2
b1 %
1"
#5
b1 2
b1 9
b1 J
b1 4
b1 6
b1 D
b110 5
b110 8
b110 <
11
b0 3
b0 ;
b0 A
b1 0
b1 E
b1 Q
b1 P
b1010 +
b1010 I
b1 '
b1 M
b0 )
b0 K
b10011 .
b10011 @
b100000000010100010011 /
b100000000010100010011 B
b1000 ,
b1000 >
b1000 G
b100 -
b100 ?
b100 C
b100 H
1!
#10
0!
#15
b0 2
b0 9
b0 J
b11 5
b11 8
b11 <
b0 4
b0 6
b0 D
01
b1 3
b1 ;
b1 A
b1001 0
b1001 E
b1001 Q
b1001 P
b10 +
b10 I
b1001 '
b1001 M
b11011 )
b11011 K
b110011 .
b110011 @
b100111011000000100110011 /
b100111011000000100110011 B
b1100 ,
b1100 >
b1100 G
b1000 -
b1000 ?
b1000 C
b1000 H
1!
#20
0!
#25
b10 2
b10 9
b10 J
b10 4
b10 6
b10 D
b110 5
b110 8
b110 <
11
b0 3
b0 ;
b0 A
b10 0
b10 E
b10 Q
b10 P
b1010 +
b1010 I
b10 '
b10 M
b0 )
b0 K
b10011 .
b10011 @
b1000000000010100010011 /
b1000000000010100010011 B
b10000 ,
b10000 >
b10000 G
b1100 -
b1100 ?
b1100 C
b1100 H
1!
#30
0!
#35
b0 2
b0 9
b0 J
b11 5
b11 8
b11 <
b0 4
b0 6
b0 D
01
b1 3
b1 ;
b1 A
b11 0
b11 E
b11 Q
b11 P
b11 +
b11 I
b11 '
b11 M
b100 )
b100 K
b110011 .
b110011 @
b1100100000000110110011 /
b1100100000000110110011 B
b10100 ,
b10100 >
b10100 G
b10000 -
b10000 ?
b10000 C
b10000 H
1!
#40
0!
#45
b11 2
b11 9
b11 J
b11 4
b11 6
b11 D
b110 5
b110 8
b110 <
11
b0 3
b0 ;
b0 A
b11111 +
b11111 I
b0 )
b0 K
b10011 .
b10011 @
b1100000000111110010011 /
b1100000000111110010011 B
b11000 ,
b11000 >
b11000 G
b10100 -
b10100 ?
b10100 C
b10100 H
1!
#50
0!
#55
b0 2
b0 9
b0 J
b11 5
b11 8
b11 <
b0 4
b0 6
b0 D
01
b1 3
b1 ;
b1 A
b10001 0
b10001 E
b10001 Q
b10001 P
b100 +
b100 I
b10001 '
b10001 M
b11011 )
b11011 K
b110011 .
b110011 @
b1000111011000001000110011 /
b1000111011000001000110011 B
b11100 ,
b11100 >
b11100 G
b11000 -
b11000 ?
b11000 C
b11000 H
1!
#60
0!
#65
b100 2
b100 9
b100 J
b100 4
b100 6
b100 D
b110 5
b110 8
b110 <
11
b0 3
b0 ;
b0 A
b100 0
b100 E
b100 Q
b100 P
b10011 +
b10011 I
b100 '
b100 M
b0 )
b0 K
b10011 .
b10011 @
b10000000000100110010011 /
b10000000000100110010011 B
b100000 ,
b100000 >
b100000 G
b11100 -
b11100 ?
b11100 C
b11100 H
1!
#70
0!
#75
b0 2
b0 9
b0 J
b10 5
b10 8
b10 <
b0 4
b0 6
b0 D
01
b1 3
b1 ;
b1 A
b1 :
b10101 0
b10101 E
b10101 Q
b10101 P
b101 +
b101 I
b10101 '
b10101 M
b11110 )
b11110 K
b110011 .
b110011 @
b1010111110001001010110011 /
b1010111110001001010110011 B
b100100 ,
b100100 >
b100100 G
b100000 -
b100000 ?
b100000 C
b100000 H
1!
#80
0!
#85
b101 2
b101 9
b101 J
b101 4
b101 6
b101 D
b110 5
b110 8
b110 <
11
b0 3
b0 ;
b0 A
b0 :
b101 0
b101 E
b101 Q
b101 P
b11001 +
b11001 I
b101 '
b101 M
b0 )
b0 K
b10011 .
b10011 @
b10100000000110010010011 /
b10100000000110010010011 B
b101000 ,
b101000 >
b101000 G
b100100 -
b100100 ?
b100100 C
b100100 H
1!
#90
0!
#95
b0 2
b0 9
b0 J
b101 5
b101 8
b101 <
b0 4
b0 6
b0 D
01
b1 3
b1 ;
b1 A
b1000 :
b100011 0
b100011 E
b100011 Q
b100011 P
b110 +
b110 I
b11 '
b11 M
b1011 )
b1011 K
b110011 .
b110011 @
b10001101011000001100110011 /
b10001101011000001100110011 B
b101100 ,
b101100 >
b101100 G
b101000 -
b101000 ?
b101000 C
b101000 H
1!
#100
0!
#105
b110 2
b110 9
b110 J
b110 4
b110 6
b110 D
b110 5
b110 8
b110 <
11
b0 3
b0 ;
b0 A
b0 :
b110 0
b110 E
b110 Q
b110 P
b11000 +
b11000 I
b110 '
b110 M
b0 )
b0 K
b10011 .
b10011 @
b11000000000110000010011 /
b11000000000110000010011 B
b110000 ,
b110000 >
b110000 G
b101100 -
b101100 ?
b101100 C
b101100 H
1!
#110
0!
#115
b0 2
b0 9
b0 J
b11 5
b11 8
b11 <
b0 4
b0 6
b0 D
01
b1 3
b1 ;
b1 A
b10 0
b10 E
b10 Q
b10 P
b111 +
b111 I
b10 '
b10 M
b10101 )
b10101 K
b110011 .
b110011 @
b1010101000001110110011 /
b1010101000001110110011 B
b110100 ,
b110100 >
b110100 G
b110000 -
b110000 ?
b110000 C
b110000 H
1!
#120
0!
#125
b111 2
b111 9
b111 J
b111 4
b111 6
b111 D
b110 5
b110 8
b110 <
11
b0 3
b0 ;
b0 A
b111 0
b111 E
b111 Q
b111 P
b1110 +
b1110 I
b111 '
b111 M
b0 )
b0 K
b10011 .
b10011 @
b11100000000011100010011 /
b11100000000011100010011 B
b111000 ,
b111000 >
b111000 G
b110100 -
b110100 ?
b110100 C
b110100 H
1!
#130
0!
#135
b101 5
b101 8
b101 <
b0 4
b0 6
b0 D
b0 2
b0 9
b0 J
01
b1 3
b1 ;
b1 A
b1000 :
b100110 0
b100110 E
b100110 Q
b100110 P
b1000 +
b1000 I
b110 '
b110 M
b111 (
b111 7
b111 L
b1110 )
b1110 K
b110011 .
b110011 @
b10011001110000010000110011 /
b10011001110000010000110011 B
b111100 ,
b111100 >
b111100 G
b111000 -
b111000 ?
b111000 C
b111000 H
1!
#140
0!
#145
b1000 2
b1000 9
b1000 J
b1000 4
b1000 6
b1000 D
b110 5
b110 8
b110 <
11
b0 3
b0 ;
b0 A
b0 :
b1000 0
b1000 E
b1000 Q
b1000 P
b1001 +
b1001 I
b1000 '
b1000 M
b0 (
b0 7
b0 L
b0 )
b0 K
b10011 .
b10011 @
b100000000000010010010011 /
b100000000000010010010011 B
b1000000 ,
b1000000 >
b1000000 G
b111100 -
b111100 ?
b111100 C
b111100 H
1!
#150
0!
#155
b0 2
b0 9
b0 J
b101 5
b101 8
b101 <
b0 4
b0 6
b0 D
01
b1 3
b1 ;
b1 A
b1000 :
b110010 0
b110010 E
b110010 Q
b110010 P
b10010 '
b10010 M
b10010 )
b10010 K
b110011 .
b110011 @
b11001010010000010010110011 /
b11001010010000010010110011 B
b1000100 ,
b1000100 >
b1000100 G
b1000000 -
b1000000 ?
b1000000 C
b1000000 H
1!
#160
0!
#165
b1001 2
b1001 9
b1001 J
b1001 4
b1001 6
b1001 D
b110 5
b110 8
b110 <
11
b0 3
b0 ;
b0 A
b0 :
b1001 0
b1001 E
b1001 Q
b1001 P
b11110 +
b11110 I
b1001 '
b1001 M
b0 )
b0 K
b10011 .
b10011 @
b100100000000111100010011 /
b100100000000111100010011 B
b1001000 ,
b1001000 >
b1001000 G
b1000100 -
b1000100 ?
b1000100 C
b1000100 H
1!
#170
0!
#175
b0 2
b0 9
b0 J
b11 5
b11 8
b11 <
b0 4
b0 6
b0 D
01
b1 3
b1 ;
b1 A
b1000 0
b1000 E
b1000 Q
b1000 P
b1011 +
b1011 I
b1000 '
b1000 M
b10110 )
b10110 K
b110011 .
b110011 @
b100010110000010110110011 /
b100010110000010110110011 B
b1001100 ,
b1001100 >
b1001100 G
b1001000 -
b1001000 ?
b1001000 C
b1001000 H
1!
#180
0!
#185
b1011 2
b1011 9
b1011 J
b1011 4
b1011 6
b1011 D
b110 5
b110 8
b110 <
11
b0 3
b0 ;
b0 A
b1011 0
b1011 E
b1011 Q
b1011 P
b11000 +
b11000 I
b1011 '
b1011 M
b0 )
b0 K
b10011 .
b10011 @
b101100000000110000010011 /
b101100000000110000010011 B
b1010000 ,
b1010000 >
b1010000 G
b1001100 -
b1001100 ?
b1001100 C
b1001100 H
1!
#190
0!
#195
b0 4
b0 6
b0 D
b1 5
b1 8
b1 <
b10 2
b10 9
b10 J
01
b1 3
b1 ;
b1 A
b100 :
b1100 +
b1100 I
b10 (
b10 7
b10 L
b1010 )
b1010 K
b110011 .
b110011 @
b101101010100011000110011 /
b101101010100011000110011 B
b1010100 ,
b1010100 >
b1010100 G
b1010000 -
b1010000 ?
b1010000 C
b1010000 H
1!
#200
0!
#205
b110 5
b110 8
b110 <
b1100 4
b1100 6
b1100 D
b1100 2
b1100 9
b1100 J
11
b0 3
b0 ;
b0 A
b0 :
b1100 0
b1100 E
b1100 Q
b1100 P
b1010 +
b1010 I
b10 &
b10 F
b10 N
b1100 '
b1100 M
b0 (
b0 7
b0 L
b0 )
b0 K
b10011 .
b10011 @
b110000000000010100010011 /
b110000000000010100010011 B
b1011000 ,
b1011000 >
b1011000 G
b1010100 -
b1010100 ?
b1010100 C
b1010100 H
1!
#210
0!
#215
b10 4
b10 6
b10 D
b0 2
b0 9
b0 J
b10 5
b10 8
b10 <
01
b1 3
b1 ;
b1 A
b1 :
b1101 +
b1101 I
b10000 )
b10000 K
b110011 .
b110011 @
b110010000001011010110011 /
b110010000001011010110011 B
b1011100 ,
b1011100 >
b1011100 G
b1011000 -
b1011000 ?
b1011000 C
b1011000 H
1!
#220
0!
#225
b1101 2
b1101 9
b1101 J
b110 5
b110 8
b110 <
b1101 4
b1101 6
b1101 D
11
b0 3
b0 ;
b0 A
b0 :
b1101 0
b1101 E
b1101 Q
b1101 P
b10010 +
b10010 I
b0 &
b0 F
b0 N
b1101 '
b1101 M
b0 )
b0 K
b10011 .
b10011 @
b110100000000100100010011 /
b110100000000100100010011 B
b1100000 ,
b1100000 >
b1100000 G
b1011100 -
b1011100 ?
b1011100 C
b1011100 H
1!
#230
0!
#235
b1011 2
b1011 9
b1011 J
b1 5
b1 8
b1 <
b1011 4
b1011 6
b1011 D
01
b1 3
b1 ;
b1 A
b100 :
b11000 0
b11000 E
b11000 Q
b11000 P
b1110 +
b1110 I
b1011 &
b1011 F
b1011 N
b11000 '
b11000 M
b11101 )
b11101 K
b110011 .
b110011 @
b1100011101100011100110011 /
b1100011101100011100110011 B
b1100100 ,
b1100100 >
b1100100 G
b1100000 -
b1100000 ?
b1100000 C
b1100000 H
1!
#240
0!
#245
b1110 2
b1110 9
b1110 J
b1110 4
b1110 6
b1110 D
b110 5
b110 8
b110 <
11
b0 3
b0 ;
b0 A
b0 :
b1110 0
b1110 E
b1110 Q
b1110 P
b11011 +
b11011 I
b1110 '
b1110 M
b0 )
b0 K
b10011 .
b10011 @
b111000000000110110010011 /
b111000000000110110010011 B
b1101000 ,
b1101000 >
b1101000 G
b1100100 -
b1100100 ?
b1100100 C
b1100100 H
1!
#250
0!
#255
b0 2
b0 9
b0 J
b10 5
b10 8
b10 <
b0 4
b0 6
b0 D
01
b1 3
b1 ;
b1 A
b1 :
b1001 0
b1001 E
b1001 Q
b1001 P
b1111 +
b1111 I
b0 &
b0 F
b0 N
b1001 '
b1001 M
b100 )
b100 K
b110011 .
b110011 @
b100100100001011110110011 /
b100100100001011110110011 B
b1101100 ,
b1101100 >
b1101100 G
b1101000 -
b1101000 ?
b1101000 C
b1101000 H
1!
#260
0!
#265
b1111 2
b1111 9
b1111 J
b1111 4
b1111 6
b1111 D
b110 5
b110 8
b110 <
11
b0 3
b0 ;
b0 A
b0 :
b1111 0
b1111 E
b1111 Q
b1111 P
b10000 +
b10000 I
b1111 '
b1111 M
b0 )
b0 K
b10011 .
b10011 @
b111100000000100000010011 /
b111100000000100000010011 B
b1110000 ,
b1110000 >
b1110000 G
b1101100 -
b1101100 ?
b1101100 C
b1101100 H
1!
#270
0!
#275
b0 2
b0 9
b0 J
b101 5
b101 8
b101 <
b0 4
b0 6
b0 D
01
b1 3
b1 ;
b1 A
b1000 :
b101000 0
b101000 E
b101000 Q
b101000 P
b1000 '
b1000 M
b10111 )
b10111 K
b110011 .
b110011 @
b10100010111000100000110011 /
b10100010111000100000110011 B
b1110100 ,
b1110100 >
b1110100 G
b1110000 -
b1110000 ?
b1110000 C
b1110000 H
1!
#280
0!
#285
b10000 2
b10000 9
b10000 J
b10000 4
b10000 6
b10000 D
b110 5
b110 8
b110 <
11
b0 3
b0 ;
b0 A
b0 :
b10000 0
b10000 E
b10000 Q
b10000 P
b1010 +
b1010 I
b10000 '
b10000 M
b0 )
b0 K
b10011 .
b10011 @
b1000000000000010100010011 /
b1000000000000010100010011 B
b1111000 ,
b1111000 >
b1111000 G
b1110100 -
b1110100 ?
b1110100 C
b1110100 H
1!
#290
0!
#295
b1 5
b1 8
b1 <
b0 4
b0 6
b0 D
b10 2
b10 9
b10 J
01
b1 3
b1 ;
b1 A
b100 :
b10101 0
b10101 E
b10101 Q
b10101 P
b10001 +
b10001 I
b10101 '
b10101 M
b10 (
b10 7
b10 L
b1100 )
b1100 K
b110011 .
b110011 @
b1010101100100100010110011 /
b1010101100100100010110011 B
b1111100 ,
b1111100 >
b1111100 G
b1111000 -
b1111000 ?
b1111000 C
b1111000 H
1!
#300
0!
#305
b110 5
b110 8
b110 <
b10001 4
b10001 6
b10001 D
b10001 2
b10001 9
b10001 J
11
b0 3
b0 ;
b0 A
b0 :
b10001 0
b10001 E
b10001 Q
b10001 P
b111 +
b111 I
b10 &
b10 F
b10 N
b10001 '
b10001 M
b0 (
b0 7
b0 L
b0 )
b0 K
b10011 .
b10011 @
b1000100000000001110010011 /
b1000100000000001110010011 B
b10000000 ,
b10000000 >
b10000000 G
b1111100 -
b1111100 ?
b1111100 C
b1111100 H
1!
#310
0!
#315
b101 5
b101 8
b101 <
b0 4
b0 6
b0 D
b0 2
b0 9
b0 J
01
b1 3
b1 ;
b1 A
b1000 :
b101111 0
b101111 E
b101111 Q
b101111 P
b10010 +
b10010 I
b0 &
b0 F
b0 N
b1111 '
b1111 M
b10 (
b10 7
b10 L
b1100 )
b1100 K
b110011 .
b110011 @
b10111101100000100100110011 /
b10111101100000100100110011 B
b10000100 ,
b10000100 >
b10000100 G
b10000000 -
b10000000 ?
b10000000 C
b10000000 H
1!
#320
0!
#325
b10010 2
b10010 9
b10010 J
b10010 4
b10010 6
b10010 D
b110 5
b110 8
b110 <
11
b0 3
b0 ;
b0 A
b0 :
b10010 0
b10010 E
b10010 Q
b10010 P
b1110 +
b1110 I
b10010 '
b10010 M
b0 (
b0 7
b0 L
b0 )
b0 K
b10011 .
b10011 @
b1001000000000011100010011 /
b1001000000000011100010011 B
b10001000 ,
b10001000 >
b10001000 G
b10000100 -
b10000100 ?
b10000100 C
b10000100 H
1!
#330
0!
#335
b10 2
b10 9
b10 J
b11 5
b11 8
b11 <
b10 4
b10 6
b10 D
01
b1 3
b1 ;
b1 A
b1100 0
b1100 E
b1100 Q
b1100 P
b10011 +
b10011 I
b10 &
b10 F
b10 N
b1100 '
b1100 M
b1001 )
b1001 K
b110011 .
b110011 @
b110001001000100110110011 /
b110001001000100110110011 B
b10001100 ,
b10001100 >
b10001100 G
b10001000 -
b10001000 ?
b10001000 C
b10001000 H
1!
#340
0!
#345
b10011 2
b10011 9
b10011 J
b10011 4
b10011 6
b10011 D
b110 5
b110 8
b110 <
11
b0 3
b0 ;
b0 A
b10011 0
b10011 E
b10011 Q
b10011 P
b111 +
b111 I
b10011 '
b10011 M
b0 )
b0 K
b10011 .
b10011 @
b1001100000000001110010011 /
b1001100000000001110010011 B
b10010000 ,
b10010000 >
b10010000 G
b10001100 -
b10001100 ?
b10001100 C
b10001100 H
1!
#350
0!
#355
b111 5
b111 8
b111 <
b10000001111 4
b10000001111 6
b10000001111 D
b0 2
b0 9
b0 J
b100000101 :
b10000001111 0
b10000001111 E
b10000001111 Q
b10000001111 P
b10100 +
b10100 I
b0 &
b0 F
b0 N
b1111 '
b1111 M
b1001 (
b1001 7
b1001 L
b11110 )
b11110 K
b1000000111111110101101000010011 /
b1000000111111110101101000010011 B
b10010100 ,
b10010100 >
b10010100 G
b10010000 -
b10010000 ?
b10010000 C
b10010000 H
1!
#360
0!
#365
b10100 2
b10100 9
b10100 J
b110 5
b110 8
b110 <
b10100 4
b10100 6
b10100 D
b0 :
b10100 0
b10100 E
b10100 Q
b10100 P
b11101 +
b11101 I
b10100 '
b10100 M
b0 (
b0 7
b0 L
b0 )
b0 K
b1010000000000111010010011 /
b1010000000000111010010011 B
b10011000 ,
b10011000 >
b10011000 G
b10010100 -
b10010100 ?
b10010100 C
b10010100 H
1!
#370
0!
#375
b101 5
b101 8
b101 <
b11 4
b11 6
b11 D
b111001 2
b111001 9
b111001 J
01
b1 3
b1 ;
b1 A
b1000 :
b111111 0
b111111 E
b111111 Q
b111111 P
b10101 +
b10101 I
b11 &
b11 F
b11 N
b11111 '
b11111 M
b10011 (
b10011 7
b10011 L
b111 )
b111 K
b110011 .
b110011 @
b11111100111000101010110011 /
b11111100111000101010110011 B
b10011100 ,
b10011100 >
b10011100 G
b10011000 -
b10011000 ?
b10011000 C
b10011000 H
1!
#380
0!
#385
b110 5
b110 8
b110 <
b10101 4
b10101 6
b10101 D
b10101 2
b10101 9
b10101 J
11
b0 3
b0 ;
b0 A
b0 :
b10101 0
b10101 E
b10101 Q
b10101 P
b11111 +
b11111 I
b111001 &
b111001 F
b111001 N
b10101 '
b10101 M
b0 (
b0 7
b0 L
b0 )
b0 K
b10011 .
b10011 @
b1010100000000111110010011 /
b1010100000000111110010011 B
b10100000 ,
b10100000 >
b10100000 G
b10011100 -
b10011100 ?
b10011100 C
b10011100 H
1!
#390
0!
#395
b0 2
b0 9
b0 J
b11 5
b11 8
b11 <
b0 4
b0 6
b0 D
01
b1 3
b1 ;
b1 A
b11 0
b11 E
b11 Q
b11 P
b10110 +
b10110 I
b0 &
b0 F
b0 N
b11 '
b11 M
b1111 )
b1111 K
b110011 .
b110011 @
b1101111000101100110011 /
b1101111000101100110011 B
b10100100 ,
b10100100 >
b10100100 G
b10100000 -
b10100000 ?
b10100000 C
b10100000 H
1!
#400
0!
#405
b10110 2
b10110 9
b10110 J
b10110 4
b10110 6
b10110 D
b110 5
b110 8
b110 <
11
b0 3
b0 ;
b0 A
b10110 0
b10110 E
b10110 Q
b10110 P
b1110 +
b1110 I
b10110 '
b10110 M
b0 )
b0 K
b10011 .
b10011 @
b1011000000000011100010011 /
b1011000000000011100010011 B
b10101000 ,
b10101000 >
b10101000 G
b10100100 -
b10100100 ?
b10100100 C
b10100100 H
1!
#410
0!
#415
b0 2
b0 9
b0 J
b10 5
b10 8
b10 <
b10100 4
b10100 6
b10100 D
01
b1 3
b1 ;
b1 A
b1 :
b11101 0
b11101 E
b11101 Q
b11101 P
b10111 +
b10111 I
b10100 &
b10100 F
b10100 N
b11101 '
b11101 M
b1 )
b1 K
b110011 .
b110011 @
b1110100001001101110110011 /
b1110100001001101110110011 B
b10101100 ,
b10101100 >
b10101100 G
b10101000 -
b10101000 ?
b10101000 C
b10101000 H
1!
#420
0!
#425
b10111 2
b10111 9
b10111 J
b110 5
b110 8
b110 <
b10111 4
b10111 6
b10111 D
11
b0 3
b0 ;
b0 A
b0 :
b10111 0
b10111 E
b10111 Q
b10111 P
b1010 +
b1010 I
b0 &
b0 F
b0 N
b10111 '
b10111 M
b0 )
b0 K
b10011 .
b10011 @
b1011100000000010100010011 /
b1011100000000010100010011 B
b10110000 ,
b10110000 >
b10110000 G
b10101100 -
b10101100 ?
b10101100 C
b10101100 H
1!
#430
0!
#435
b10 2
b10 9
b10 J
b11 5
b11 8
b11 <
b10 4
b10 6
b10 D
01
b1 3
b1 ;
b1 A
b1100 0
b1100 E
b1100 Q
b1100 P
b11000 +
b11000 I
b10 &
b10 F
b10 N
b1100 '
b1100 M
b100 )
b100 K
b110011 .
b110011 @
b110000100000110000110011 /
b110000100000110000110011 B
b10110100 ,
b10110100 >
b10110100 G
b10110000 -
b10110000 ?
b10110000 C
b10110000 H
1!
#440
0!
#445
b11000 2
b11000 9
b11000 J
b11000 4
b11000 6
b11000 D
b110 5
b110 8
b110 <
11
b0 3
b0 ;
b0 A
b11000 0
b11000 E
b11000 Q
b11000 P
b110 +
b110 I
b11000 '
b11000 M
b0 )
b0 K
b10011 .
b10011 @
b1100000000000001100010011 /
b1100000000000001100010011 B
b10111000 ,
b10111000 >
b10111000 G
b10110100 -
b10110100 ?
b10110100 C
b10110100 H
1!
#450
0!
#455
b11111111111111111111111111111110 2
b11111111111111111111111111111110 9
b11111111111111111111111111111110 J
b100 5
b100 8
b100 <
b10 4
b10 6
b10 D
01
b1 3
b1 ;
b1 A
b100000000 :
b10000010001 0
b10000010001 E
b10000010001 Q
b10000010001 P
b11001 +
b11001 I
b10001 '
b10001 M
b10010 )
b10010 K
b110011 .
b110011 @
b1000001000110010000110010110011 /
b1000001000110010000110010110011 B
b10111100 ,
b10111100 >
b10111100 G
b10111000 -
b10111000 ?
b10111000 C
b10111000 H
1!
#460
0!
#465
b11001 2
b11001 9
b11001 J
b110 5
b110 8
b110 <
b11001 4
b11001 6
b11001 D
11
b0 3
b0 ;
b0 A
b0 :
b11001 0
b11001 E
b11001 Q
b11001 P
b10111 +
b10111 I
b11111111111111111111111111111110 &
b11111111111111111111111111111110 F
b11111111111111111111111111111110 N
b11001 '
b11001 M
b0 )
b0 K
b10011 .
b10011 @
b1100100000000101110010011 /
b1100100000000101110010011 B
b11000000 ,
b11000000 >
b11000000 G
b10111100 -
b10111100 ?
b10111100 C
b10111100 H
1!
#470
0!
#475
b100 5
b100 8
b100 <
b1110 4
b1110 6
b1110 D
b11111111111111111111111111110100 2
b11111111111111111111111111110100 9
b11111111111111111111111111110100 J
01
b1 3
b1 ;
b1 A
b100000000 :
b10000011011 0
b10000011011 E
b10000011011 Q
b10000011011 P
b11010 +
b11010 I
b1110 &
b1110 F
b1110 N
b11011 '
b11011 M
b10 (
b10 7
b10 L
b10001 )
b10001 K
b110011 .
b110011 @
b1000001101110001000110100110011 /
b1000001101110001000110100110011 B
b11000100 ,
b11000100 >
b11000100 G
b11000000 -
b11000000 ?
b11000000 C
b11000000 H
1!
#480
0!
#485
b110 5
b110 8
b110 <
b11010 4
b11010 6
b11010 D
b11010 2
b11010 9
b11010 J
11
b0 3
b0 ;
b0 A
b0 :
b11010 0
b11010 E
b11010 Q
b11010 P
b1100 +
b1100 I
b11111111111111111111111111110100 &
b11111111111111111111111111110100 F
b11111111111111111111111111110100 N
b11010 '
b11010 M
b0 (
b0 7
b0 L
b0 )
b0 K
b10011 .
b10011 @
b1101000000000011000010011 /
b1101000000000011000010011 B
b11001000 ,
b11001000 >
b11001000 G
b11000100 -
b11000100 ?
b11000100 C
b11000100 H
1!
#490
0!
#495
b0 2
b0 9
b0 J
b0 5
b0 8
b0 <
b10 4
b10 6
b10 D
01
b1 3
b1 ;
b1 A
b111 :
b10011 0
b10011 E
b10011 Q
b10011 P
b11011 +
b11011 I
b10 &
b10 F
b10 N
b10011 '
b10011 M
b1000 )
b1000 K
b110011 .
b110011 @
b1001101000111110110110011 /
b1001101000111110110110011 B
b11001100 ,
b11001100 >
b11001100 G
b11001000 -
b11001000 ?
b11001000 C
b11001000 H
1!
#500
0!
#505
b11011 2
b11011 9
b11011 J
b110 5
b110 8
b110 <
b11011 4
b11011 6
b11011 D
11
b0 3
b0 ;
b0 A
b0 :
b11011 0
b11011 E
b11011 Q
b11011 P
b110 +
b110 I
b0 &
b0 F
b0 N
b11011 '
b11011 M
b0 )
b0 K
b10011 .
b10011 @
b1101100000000001100010011 /
b1101100000000001100010011 B
b11010000 ,
b11010000 >
b11010000 G
b11001100 -
b11001100 ?
b11001100 C
b11001100 H
1!
#510
0!
#515
b0 2
b0 9
b0 J
b10 5
b10 8
b10 <
b0 4
b0 6
b0 D
01
b1 3
b1 ;
b1 A
b1 :
b10010 0
b10010 E
b10010 Q
b10010 P
b11100 +
b11100 I
b10010 '
b10010 M
b11011 )
b11011 K
b110011 .
b110011 @
b1001011011001111000110011 /
b1001011011001111000110011 B
b11010100 ,
b11010100 >
b11010100 G
b11010000 -
b11010000 ?
b11010000 C
b11010000 H
1!
#520
0!
#525
b11100 2
b11100 9
b11100 J
b11100 4
b11100 6
b11100 D
b110 5
b110 8
b110 <
11
b0 3
b0 ;
b0 A
b0 :
b11100 0
b11100 E
b11100 Q
b11100 P
b11001 +
b11001 I
b11100 '
b11100 M
b0 )
b0 K
b10011 .
b10011 @
b1110000000000110010010011 /
b1110000000000110010010011 B
b11011000 ,
b11011000 >
b11011000 G
b11010100 -
b11010100 ?
b11010100 C
b11010100 H
1!
#530
0!
#535
b0 2
b0 9
b0 J
b0 5
b0 8
b0 <
b1001 4
b1001 6
b1001 D
01
b1 3
b1 ;
b1 A
b111 :
b11110 0
b11110 E
b11110 Q
b11110 P
b11101 +
b11101 I
b1001 &
b1001 F
b1001 N
b11110 '
b11110 M
b10000 )
b10000 K
b110011 .
b110011 @
b1111010000111111010110011 /
b1111010000111111010110011 B
b11011100 ,
b11011100 >
b11011100 G
b11011000 -
b11011000 ?
b11011000 C
b11011000 H
1!
#540
0!
#545
b11101 2
b11101 9
b11101 J
b110 5
b110 8
b110 <
b11101 4
b11101 6
b11101 D
11
b0 3
b0 ;
b0 A
b0 :
b11101 0
b11101 E
b11101 Q
b11101 P
b1111 +
b1111 I
b0 &
b0 F
b0 N
b11101 '
b11101 M
b0 )
b0 K
b10011 .
b10011 @
b1110100000000011110010011 /
b1110100000000011110010011 B
b11100000 ,
b11100000 >
b11100000 G
b11011100 -
b11011100 ?
b11011100 C
b11011100 H
1!
#550
0!
#555
b0 5
b0 8
b0 <
b10111 4
b10111 6
b10111 D
b10001 2
b10001 9
b10001 J
01
b1 3
b1 ;
b1 A
b111 :
b1010 0
b1010 E
b1010 Q
b1010 P
b11110 +
b11110 I
b10111 &
b10111 F
b10111 N
b1010 '
b1010 M
b111001 (
b111001 7
b111001 L
b10101 )
b10101 K
b110011 .
b110011 @
b101010101111111100110011 /
b101010101111111100110011 B
b11100100 ,
b11100100 >
b11100100 G
b11100000 -
b11100000 ?
b11100000 C
b11100000 H
1!
#560
0!
