lab3/Final.vcd
$date
	Wed Dec 10 13:42:03 2025
$end
$version
	Icarus Verilog
$end
$timescale
	10ps
$end
$scope module Final_tb $end
$var wire 128 ! DMEM_rdata [127:0] $end
$var wire 1 " IMEM_cen $end
$var wire 1 # cache_available $end
$var wire 1 $ mem_stall $end
$var wire 1 % proc_finish $end
$var wire 32 & mem_I_addr [31:0] $end
$var wire 1 ' finish $end
$var wire 1 ( cache_wen $end
$var wire 32 ) cache_wdata [31:0] $end
$var wire 1 * cache_stall $end
$var wire 32 + cache_rdata [31:0] $end
$var wire 1 , cache_finish $end
$var wire 1 - cache_cen $end
$var wire 32 . cache_addr [31:0] $end
$var wire 1 / SMEM_stall $end
$var wire 32 0 IMEM_addr [31:0] $end
$var wire 1 1 DMEM_wen $end
$var wire 128 2 DMEM_wdata [127:0] $end
$var wire 1 3 DMEM_stall $end
$var wire 1 4 DMEM_cen $end
$var wire 32 5 DMEM_addr [31:0] $end
$var reg 32 6 IMEM_data [31:0] $end
$var reg 1 7 clk $end
$var reg 1 8 eof_find $end
$var reg 32 9 mem_data [31:0] $end
$var reg 32 : mem_data_offset [31:0] $end
$var reg 32 ; mem_inst_offset [31:0] $end
$var reg 32 < mem_stack_offset [31:0] $end
$var reg 1 = rst_n $end
$var integer 32 > cyc [31:0] $end
$var integer 32 ? eof [31:0] $end
$var integer 32 @ error_num [31:0] $end
$var integer 32 A i [31:0] $end
$scope module DMEM $end
$var wire 1 B addr_invalid $end
$var wire 1 # i_cache $end
$var wire 1 7 i_clk $end
$var wire 32 C i_offset [31:0] $end
$var wire 1 = i_rst_n $end
$var wire 32 D i_ubound [31:0] $end
$var wire 128 E o_rdata [127:0] $end
$var wire 128 F rdata [127:0] $end
$var wire 1 3 o_stall $end
$var wire 1 1 i_wen $end
$var wire 128 G i_wdata [127:0] $end
$var wire 1 4 i_cen $end
$var wire 32 H i_addr [31:0] $end
$var wire 33 I addr_true [32:0] $end
$var wire 32 J addr_mem [31:0] $end
$var wire 32 K addr_idx [31:0] $end
$var parameter 32 L ADDR_W $end
$var parameter 32 M BIT_W $end
$var parameter 32 N SIZE $end
$var reg 32 O addr [31:0] $end
$var reg 1 P cen $end
$var reg 4 Q delay_cnt [3:0] $end
$var reg 128 R wdata [127:0] $end
$var reg 1 S wen $end
$var integer 32 T i [31:0] $end
$upscope $end
$scope module SMEM $end
$var wire 1 U addr_invalid $end
$var wire 1 # i_cache $end
$var wire 1 7 i_clk $end
$var wire 32 V i_offset [31:0] $end
$var wire 1 = i_rst_n $end
$var wire 32 W i_ubound [31:0] $end
$var wire 128 X o_rdata [127:0] $end
$var wire 128 Y rdata [127:0] $end
$var wire 1 / o_stall $end
$var wire 1 1 i_wen $end
$var wire 128 Z i_wdata [127:0] $end
$var wire 1 4 i_cen $end
$var wire 32 [ i_addr [31:0] $end
$var wire 33 \ addr_true [32:0] $end
$var wire 32 ] addr_mem [31:0] $end
$var wire 32 ^ addr_idx [31:0] $end
$var parameter 32 _ ADDR_W $end
$var parameter 32 ` BIT_W $end
$var parameter 32 a SIZE $end
$var reg 32 b addr [31:0] $end
$var reg 1 c cen $end
$var reg 4 d delay_cnt [3:0] $end
$var reg 128 e wdata [127:0] $end
$var reg 1 f wen $end
$var integer 32 g i [31:0] $end
$upscope $end
$scope module cache $end
$var wire 158 h current_line [157:0] $end
$var wire 1 i hit $end
$var wire 1 7 i_clk $end
$var wire 128 j i_mem_rdata [127:0] $end
$var wire 1 $ i_mem_stall $end
$var wire 32 k i_offset [31:0] $end
$var wire 1 = i_rst_n $end
$var wire 1 # o_cache_available $end
$var wire 1 , o_cache_finish $end
$var wire 32 l o_mem_addr [31:0] $end
$var wire 1 4 o_mem_cen $end
$var wire 128 m o_mem_wdata [127:0] $end
$var wire 1 1 o_mem_wen $end
$var wire 1 * o_proc_stall $end
$var wire 1 n valid_bit $end
$var wire 28 o stored_tag [27:0] $end
$var wire 128 p stored_data [127:0] $end
$var wire 28 q req_tag [27:0] $end
$var wire 3 r req_index [2:0] $end
$var wire 32 s o_proc_rdata [31:0] $end
$var wire 1 t miss $end
$var wire 1 ( i_proc_wen $end
$var wire 32 u i_proc_wdata [31:0] $end
$var wire 1 % i_proc_finish $end
$var wire 1 - i_proc_cen $end
$var wire 32 v i_proc_addr [31:0] $end
$var wire 1 w flush_dirty $end
$var wire 1 x dirty_bit $end
$var wire 2 y block_offset [1:0] $end
$var wire 32 z block_addr_num [31:0] $end
$var wire 32 { addr_norm [31:0] $end
$var parameter 32 | ADDR_W $end
$var parameter 32 } BIT_W $end
$var parameter 65 ~ CACHE_LINE_W $end
$var parameter 32 !" CACHE_SIZE $end
$var parameter 32 "" INDEX_BITS $end
$var parameter 2 #" S_ALLOCATE $end
$var parameter 2 $" S_FLUSH $end
$var parameter 2 %" S_IDLE $end
$var parameter 2 &" S_WRITEBACK $end
$var parameter 32 '" TAG_BITS $end
$var reg 4 (" flush_idx [3:0] $end
$var reg 32 )" mem_addr [31:0] $end
$var reg 1 4 mem_cen $end
$var reg 128 *" mem_wdata [127:0] $end
$var reg 1 1 mem_wen $end
$var reg 2 +" next_state [1:0] $end
$var reg 32 ," recover_block_addr [31:0] $end
$var reg 2 -" state [1:0] $end
$var integer 32 ." i [31:0] $end
$upscope $end
$scope module cpu0 $end
$var wire 32 /" i_DMEM_rdata [31:0] $end
$var wire 1 * i_DMEM_stall $end
$var wire 32 0" i_IMEM_data [31:0] $end
$var wire 1 , i_cache_finish $end
$var wire 1 7 i_clk $end
$var wire 1 = i_rst_n $end
$var wire 32 1" o_DMEM_addr [31:0] $end
$var wire 1 - o_DMEM_cen $end
$var wire 32 2" o_DMEM_wdata [31:0] $end
$var wire 1 ( o_DMEM_wen $end
$var wire 32 3" o_IMEM_addr [31:0] $end
$var wire 1 " o_IMEM_cen $end
$var wire 1 ' o_finish $end
$var wire 1 4" reg_wen $end
$var wire 1 5" zero_flag $end
$var wire 32 6" rs2_data [31:0] $end
$var wire 32 7" rs1_data [31:0] $end
$var wire 32 8" rd_data [31:0] $end
$var wire 1 % o_proc_finish $end
$var wire 1 9" mem_write $end
$var wire 2 :" mem_to_reg [1:0] $end
$var wire 1 ;" mem_read $end
$var wire 1 <" jump $end
$var wire 1 =" is_jalr $end
$var wire 32 >" imm [31:0] $end
$var wire 1 ?" ctrl_reg_write $end
$var wire 1 @" branch_taken $end
$var wire 32 A" branch_addr [31:0] $end
$var wire 1 B" branch $end
$var wire 1 C" alu_src $end
$var wire 32 D" alu_result [31:0] $end
$var wire 2 E" alu_op [1:0] $end
$var wire 32 F" alu_data2 [31:0] $end
$var wire 32 G" alu_data1 [31:0] $end
$var wire 3 H" alu_ctrl [2:0] $end
$var wire 32 I" PC_next [31:0] $end
$var parameter 32 J" BIT_W $end
$var reg 32 K" PC [31:0] $end
$scope module alu0 $end
$var wire 32 L" data1_i [31:0] $end
$var wire 1 5" zero_o $end
$var wire 32 M" data2_i [31:0] $end
$var wire 3 N" ALUCtrl_i [2:0] $end
$var parameter 3 O" ADD $end
$var parameter 3 P" AND $end
$var parameter 3 Q" MUL $end
$var parameter 3 R" SLL $end
$var parameter 3 S" SLT $end
$var parameter 3 T" SRAI $end
$var parameter 3 U" SUB $end
$var parameter 3 V" XOR $end
$var reg 32 W" data_o [31:0] $end
$upscope $end
$scope module alu_control0 $end
$var wire 10 X" func_i [9:0] $end
$var wire 7 Y" funct7 [6:0] $end
$var wire 3 Z" funct3 [2:0] $end
$var wire 2 [" ALUOp_i [1:0] $end
$var parameter 3 \" ADD $end
$var parameter 3 ]" AND $end
$var parameter 3 ^" MUL $end
$var parameter 3 _" SLL $end
$var parameter 3 `" SLT $end
$var parameter 3 a" SRAI $end
$var parameter 3 b" SUB $end
$var parameter 3 c" XOR $end
$var reg 3 d" ALUCtrl_o [2:0] $end
$upscope $end
$scope module branch_unit0 $end
$var wire 32 e" alu_result_i [31:0] $end
$var wire 1 5" alu_zero_i $end
$var wire 1 @" branch_taken_o $end
$var wire 3 f" func3_i [2:0] $end
$var wire 32 g" pc_i [31:0] $end
$var wire 32 h" imm_i [31:0] $end
$var wire 1 B" branch_i $end
$var wire 32 i" branch_addr_o [31:0] $end
$var reg 1 j" take $end
$upscope $end
$scope module control0 $end
$var wire 7 k" opcode_i [6:0] $end
$var reg 2 l" ALUOp_o [1:0] $end
$var reg 1 C" ALUSrc_o $end
$var reg 1 B" Branch_o $end
$var reg 1 ;" MemRead_o $end
$var reg 1 9" MemWrite_o $end
$var reg 2 m" MemtoReg_o [1:0] $end
$var reg 1 ?" RegWrite_o $end
$var reg 1 <" jump_o $end
$upscope $end
$scope module imm_gen0 $end
$var wire 32 n" instr_i [31:0] $end
$var parameter 7 o" OP_AUIPC $end
$var parameter 7 p" OP_Branch $end
$var parameter 7 q" OP_I_TYPE $end
$var parameter 7 r" OP_JAL $end
$var parameter 7 s" OP_JALR $end
$var parameter 7 t" OP_LW $end
$var parameter 7 u" OP_SW $end
$var reg 32 v" imm_o [31:0] $end
$upscope $end
$scope module mux_data_2 $end
$var wire 32 w" data2_i [31:0] $end
$var wire 1 C" select_i $end
$var wire 32 x" data_o [31:0] $end
$var wire 32 y" data1_i [31:0] $end
$upscope $end
$scope module reg0 $end
$var wire 1 7 i_clk $end
$var wire 1 = i_rst_n $end
$var wire 5 z" rd [4:0] $end
$var wire 32 {" rdata1 [31:0] $end
$var wire 32 |" rdata2 [31:0] $end
$var wire 5 }" rs1 [4:0] $end
$var wire 5 ~" rs2 [4:0] $end
$var wire 32 !# wdata [31:0] $end
$var wire 1 4" wen $end
$var parameter 32 "# BITS $end
$var parameter 32 ## addr_width $end
$var parameter 32 $# word_depth $end
$var integer 32 %# i [31:0] $end
$upscope $end
$upscope $end
$scope task fail_fig $end
$upscope $end
$scope task pass_fig $end
$upscope $end
$upscope $end
$enddefinitions $end
$comment Show the parameter values. $end
$dumpall
b100000 $#
b101 ##
b100000 "#
b100011 u"
b11 t"
b1100111 s"
b1101111 r"
b10011 q"
b1100011 p"
b10111 o"
b1 c"
b100 b"
b111 a"
b110 `"
b10 _"
b101 ^"
b0 ]"
b11 \"
b1 V"
b100 U"
b111 T"
b110 S"
b10 R"
b101 Q"
b0 P"
b11 O"
b100000 J"
b11100 '"
b10 &"
b0 %"
b11 $"
b1 #"
b11 ""
b111 !"
b10011110 ~
b100000 }
b100000 |
b100000 a
b100000 `
b100000 _
b10000000000 N
b100000 M
b100000 L
$end
#0
$dumpvars
b100000 %#
b0 !#
b0 ~"
b0 }"
b0 |"
b0 {"
b0 z"
b0 y"
b0 x"
b0 w"
b0 v"
b0 n"
b0 m"
b0 l"
b0 k"
1j"
bx i"
b0 h"
bx g"
b0 f"
b0 e"
b11 d"
b0 ["
b0 Z"
b0 Y"
b0 X"
b0 W"
b11 N"
b0 M"
b0 L"
bx K"
bx I"
b11 H"
b0 G"
b0 F"
b0 E"
b0 D"
0C"
0B"
bx A"
0@"
0?"
b0 >"
0="
0<"
0;"
b0 :"
09"
b0 8"
b0 7"
b0 6"
15"
04"
bx 3"
b0 2"
b0 1"
b0 0"
bx /"
bx ."
bx -"
b0 ,"
b0 +"
b0 *"
b0 )"
bx ("
b11111111111111101111111100110100 {
b1111111111111110111111110011 z
b1 y
xx
xw
b0 v
b0 u
xt
bx s
b10 r
b10010010010010001001000111 q
bx p
bx o
xn
b0 m
b0 l
b10000000011001100 k
bz j
xi
bx h
b100000 g
xf
bx e
b0 d
xc
bx b
bx ^
b0xxxxxxxxxxxxxxxxxxxxxxxxxxxxxx ]
bx \
b0 [
b0 Z
bx Y
bz X
b10111111111111111111111111110000 W
b10111111111111111111111101110000 V
xU
b10000000000 T
xS
bx R
b0 Q
xP
bx O
bx K
b0xxxxxxxxxxxxxxxxxxxxxxxxxxxxxx J
bx I
b0 H
b0 G
bx F
bz E
b10111111111111111111111101110000 D
b10000000011001100 C
xB
b10000000000 A
bx @
b10000000011001100 ?
b0 >
1=
b10111111111111111111111101110000 <
b10000000000000000 ;
b10000000011001100 :
bx 9
18
17
b0 6
b0 5
04
x3
b0 2
01
bx 0
x/
b0 .
0-
x,
bx +
x*
b0 )
0(
x'
b0xxxxxxxxxxxxxxxxxxxxxxxxxxxxxx &
0%
x$
1#
1"
bz !
$end
#500
b0 Y
b0 F
0$
b0 ]
0/
b0 J
03
0'
0,
1U
b0 ^
1B
b0 K
0w
0*
b0 &
b0 ("
b0 -"
b0 e
b101000000000000000000000010010000 \
b0 b
0f
0c
b0 R
b111111111111111101111111100110100 I
b0 O
0S
0P
b10000000000000000 A"
b10000000000000000 i"
b10000000000000000 0
b10000000000000000 3"
b10000000000000000 K"
b10000000000000000 g"
bx q
bx r
x5"
bx 8"
bx !#
b0xxxxxxxxxxxxxxxxxxxxxxxxxxxx z
bx y
b11 H"
b11 N"
b11 d"
bx {
bx .
bx v
bx 1"
bx D"
bx W"
bx e"
bx F"
bx M"
bx x"
bx Y"
bx Z"
bx G"
bx L"
0j"
x%
bx 7"
bx {"
bx }"
bx )
bx u
bx 2"
bx 6"
bx y"
bx |"
bx ~"
bx z"
bx k"
bx X"
bx f"
x="
bx 6
bx 0"
bx n"
b1 >
b111 ."
b100000 g
b10000000000 T
b100000 %#
07
0=
#1000
b100000 %#
b10000000000 T
b100000 g
b111 ."
17
#1500
1t
0i
0n
0x
b0 o
b0 +
b0 s
b0 /"
b0 p
b10010010010010010010010000 q
b0 h
b11 r
05"
b10000000000000000 8"
b10000000000000000 !#
b1111111111111111111111110011 z
b1 y
14"
b11 H"
b11 N"
b11 d"
b11111111111111111111111100110100 {
b10000000000000000 .
b10000000000000000 v
b10000000000000000 1"
b10000000000000000 D"
b10000000000000000 W"
b10000000000000000 e"
b0 F"
b0 M"
b0 x"
b100000 %#
1?"
1C"
b0 Y"
b0 Z"
b10000000000000000 G"
b10000000000000000 L"
0j"
0%
b10000000000000100 I"
b0 7"
b0 {"
b0 }"
b0 )
b0 u
b0 2"
b0 6"
b0 y"
b0 |"
b0 ~"
b110 z"
b10111 k"
b0 X"
b0 f"
0="
b10 >
b1100010111 6
b1100010111 0"
b1100010111 n"
07
#2000
b111 ."
b100000 g
b10000000000 T
b100000 %#
17
#2500
b11 >
b10000000000 T
07
b1100000000000000000000000000000110010000000000000000000000000010001000000000000000000000000000001001 F
b10000000000 A
1=
#3000
b10 y
b10000000000000100 8"
b10000000000000100 !#
b11111111111111111111111100111000 {
b10000000000000100 .
b10000000000000100 v
b10000000000000100 1"
b10000000000000100 D"
b10000000000000100 W"
b10000000000000100 e"
b10000000000001000 I"
b10000000000000100 G"
b10000000000000100 L"
b1 &
b10000000000000100 A"
b10000000000000100 i"
b10000000000000100 0
b10000000000000100 3"
b10000000000000100 K"
b10000000000000100 g"
b100000 %#
b10000000000 T
b100000 g
17
#3500
b10010010010010010010010010 q
b0 r
b1111111111111111111111111110 z
b0 y
b10000000000001000 8"
b10000000000001000 !#
b11 H"
b11 N"
b11 d"
b11111111111111111111111111100000 {
b10000000010101100 .
b10000000010101100 v
b10000000010101100 1"
b10000000010101100 D"
b10000000010101100 W"
b10000000010101100 e"
b100000 %#
1<"
b10 :"
b10 m"
1C"
1?"
b101 Y"
b10000000000000000 G"
b10000000000000000 L"
b10000000010101100 I"
b10101100 F"
b10101100 M"
b10101100 x"
b10000000000000000 7"
b10000000000000000 {"
b110 }"
b1100 ~"
b0 z"
b1100111 k"
b101000 X"
1="
b10000000010110000 A"
b10000000010110000 i"
b10101100 >"
b10101100 h"
b10101100 v"
b10101100 w"
b100 >
b1010110000110000000001100111 6
b1010110000110000000001100111 0"
b1010110000110000000001100111 n"
07
#4000
b10000000010110000 8"
b10000000010110000 !#
b101011 &
b10000000101011000 A"
b10000000101011000 i"
b10000000010101100 0
b10000000010101100 3"
b10000000010101100 K"
b10000000010101100 g"
b100000 g
b10000000000 T
b100000 %#
17
#4500
b10000000010101100 8"
b10000000010101100 !#
b11 H"
b11 N"
b11 d"
b11111111111111111111111111100000 {
b10000000010101100 .
b10000000010101100 v
b10000000010101100 1"
b10000000010101100 D"
b10000000010101100 W"
b10000000010101100 e"
b100000 %#
0<"
1C"
b0 :"
b0 m"
1?"
b0 Y"
b10000000010101100 G"
b10000000010101100 L"
b10000000010110000 I"
b0 F"
b0 M"
b0 x"
b0 7"
b0 {"
b0 }"
b0 ~"
b1010 z"
b10111 k"
b0 X"
0="
b10000000010101100 A"
b10000000010101100 i"
b0 >"
b0 h"
b0 v"
b0 w"
b10100010111 6
b10100010111 0"
b10100010111 n"
b101 >
07
#5000
b10000000010110000 8"
b10000000010110000 !#
b1 y
b11111111111111111111111111100100 {
b10000000010110000 .
b10000000010110000 v
b10000000010110000 1"
b10000000010110000 D"
b10000000010110000 W"
b10000000010110000 e"
b10000000010110100 I"
b10000000010110000 G"
b10000000010110000 L"
b101100 &
b10000000010110000 A"
b10000000010110000 i"
b10000000010110000 0
b10000000010110000 3"
b10000000010110000 K"
b10000000010110000 g"
b100000 %#
b10000000000 T
b100000 g
17
#5500
b100000 %#
b0 q
b10000000011010000 8"
b10000000011010000 !#
b0 z
b11 H"
b11 N"
b11 d"
b100 {
b10000000011010000 .
b10000000011010000 v
b10000000011010000 1"
b10000000011010000 D"
b10000000011010000 W"
b10000000011010000 e"
b11 E"
b11 ["
b11 l"
1C"
1?"
b1 Y"
b10000000010101100 G"
b10000000010101100 L"
b100100 F"
b100100 M"
b100100 x"
b10000000010101100 7"
b10000000010101100 {"
b1010 }"
b100 ~"
b10011 k"
b1000 X"
b10000000011010100 A"
b10000000011010100 i"
b100100 >"
b100100 h"
b100100 v"
b100100 w"
b110 >
b10010001010000010100010011 6
b10010001010000010100010011 0"
b10010001010000010100010011 n"
07
#6000
b10 r
b10 y
b10000000011110100 8"
b10000000011110100 !#
b10 z
b10000000010111000 I"
b101000 {
b10000000011110100 .
b10000000011110100 v
b10000000011110100 1"
b10000000011110100 D"
b10000000011110100 W"
b10000000011110100 e"
b101101 &
b10000000011010000 G"
b10000000011010000 L"
b10000000011011000 A"
b10000000011011000 i"
b10000000010110100 0
b10000000010110100 3"
b10000000010110100 K"
b10000000010110100 g"
b10000000011010000 7"
b10000000011010000 {"
b100000 g
b10000000000 T
b100000 %#
17
#6500
b10010010010010010010010010 q
b0 r
b10000000010110100 8"
b10000000010110100 !#
b1111111111111111111111111110 z
b11 H"
b11 N"
b11 d"
b11111111111111111111111111101000 {
b10000000010110100 .
b10000000010110100 v
b10000000010110100 1"
b10000000010110100 D"
b10000000010110100 W"
b10000000010110100 e"
b100000 %#
1C"
b0 E"
b0 ["
b0 l"
1?"
b0 Y"
b10000000010110100 G"
b10000000010110100 L"
b0 F"
b0 M"
b0 x"
b0 7"
b0 {"
b0 }"
b0 ~"
b101 z"
b10111 k"
b0 X"
b10000000010110100 A"
b10000000010110100 i"
b0 >"
b0 h"
b0 v"
b0 w"
b1010010111 6
b1010010111 0"
b1010010111 n"
b111 >
07
#7000
b10000000010111000 8"
b10000000010111000 !#
b11 y
b11111111111111111111111111101100 {
b10000000010111000 .
b10000000010111000 v
b10000000010111000 1"
b10000000010111000 D"
b10000000010111000 W"
b10000000010111000 e"
b10000000010111100 I"
b10000000010111000 G"
b10000000010111000 L"
b101110 &
b10000000010111000 A"
b10000000010111000 i"
b10000000010111000 0
b10000000010111000 3"
b10000000010111000 K"
b10000000010111000 g"
b100000 %#
b10000000000 T
b100000 g
17
#7500
b100000 %#
b0 q
b10000000011001100 8"
b10000000011001100 !#
b0 z
b0 y
b11 H"
b11 N"
b11 d"
b0 {
b10000000011001100 .
b10000000011001100 v
b10000000011001100 1"
b10000000011001100 D"
b10000000011001100 W"
b10000000011001100 e"
b11 E"
b11 ["
b11 l"
1C"
1?"
b10000000010110100 G"
b10000000010110100 L"
b11000 F"
b11000 M"
b11000 x"
b10000000010110100 7"
b10000000010110100 {"
b101 }"
b11000 ~"
b10011 k"
b10000000011010000 A"
b10000000011010000 i"
b11000 >"
b11000 h"
b11000 v"
b11000 w"
b1000 >
b1100000101000001010010011 6
b1100000101000001010010011 0"
b1100000101000001010010011 n"
07
#8000
b1 r
b10000000011100100 8"
b10000000011100100 !#
b1 z
b10 y
b10000000011000000 I"
b11000 {
b10000000011100100 .
b10000000011100100 v
b10000000011100100 1"
b10000000011100100 D"
b10000000011100100 W"
b10000000011100100 e"
b101111 &
b10000000011001100 G"
b10000000011001100 L"
b10000000011010100 A"
b10000000011010100 i"
b10000000010111100 0
b10000000010111100 3"
b10000000010111100 K"
b10000000010111100 g"
b10000000011001100 7"
b10000000011001100 {"
b100000 g
b10000000000 T
b100000 %#
17
#8500
04"
1*
b0 r
b1 +"
b0 z
b0 y
1-
b0 8"
b0 !#
b11 H"
b11 N"
b11 d"
b0 {
b10000000011001100 .
b10000000011001100 v
b10000000011001100 1"
b10000000011001100 D"
b10000000011001100 W"
b10000000011001100 e"
b100000 %#
1;"
b1 :"
b1 m"
1C"
b0 E"
b0 ["
b0 l"
1?"
b10 Z"
b0 F"
b0 M"
b0 x"
b0 ~"
b1011 z"
b11 k"
b10 X"
b10 f"
b10000000010111100 A"
b10000000010111100 i"
b0 >"
b0 h"
b0 v"
b0 w"
b101010010110000011 6
b101010010110000011 0"
b101010010110000011 n"
b1001 >
07
#9000
1$
1/
13
b10000000011001100 5
b10000000011001100 H
b10000000011001100 [
b10000000011001100 l
b10000000011001100 )"
14
b1 +"
b1 -"
b100000 %#
b10000000000 T
b100000 g
17
#9500
b1010 >
07
#10000
0B
b101000000000000010000000101011100 \
b10000000011001100 b
1c
b0 I
b10000000011001100 O
1P
b100000 g
b10000000000 T
b100000 %#
17
#10500
b1011 >
07
#11000
b1 Q
b1 d
b100000 %#
b10000000000 T
b100000 g
17
#11500
b1100 >
07
#12000
b10 d
b10 Q
b100000 g
b10000000000 T
b100000 %#
17
#12500
b1101 >
07
#13000
b11 Q
b11 d
b100000 %#
b10000000000 T
b100000 g
17
#13500
b1110 >
07
#14000
b100 d
b100 Q
b100000 g
b10000000000 T
b100000 %#
17
#14500
b1111 >
07
#15000
b101 Q
b101 d
b100000 %#
b10000000000 T
b100000 g
17
#15500
b10000 >
07
#16000
b110 d
b110 Q
b100000 g
b10000000000 T
b100000 %#
17
#16500
b10001 >
07
#17000
b111 Q
b111 d
b100000 %#
b10000000000 T
b100000 g
17
#17500
b10010 >
07
#18000
b1000 d
b1000 Q
b100000 g
b10000000000 T
b100000 %#
17
#18500
b10011 >
07
#19000
b1001 Q
b1001 d
b100000 %#
b10000000000 T
b100000 g
17
#19500
b10100 >
07
#20000
b0 +"
0$
0/
b1100000000000000000000000000000110010000000000000000000000000010001000000000000000000000000000001001 !
b1100000000000000000000000000000110010000000000000000000000000010001000000000000000000000000000001001 E
b1100000000000000000000000000000110010000000000000000000000000010001000000000000000000000000000001001 X
b1100000000000000000000000000000110010000000000000000000000000010001000000000000000000000000000001001 j
03
b1010 d
b1010 Q
b100000 g
b10000000000 T
b100000 %#
17
#20500
b10101 >
07
#21000
14"
0*
b1100000000000000000000000000000110010000000000000000000000000010001000000000000000000000000000001001 F
b0 J
bz !
bz E
bz X
bz j
b1001 8"
b1001 !#
1B
b0 K
0t
1i
b0 +"
b1001 +
b1001 s
b1001 /"
b1100000000000000000000000000000110010000000000000000000000000010001000000000000000000000000000001001 p
b0 5
b0 H
b0 [
b0 l
b0 )"
04
1n
b111111111111111101111111100110100 I
b0 O
0P
b0 Q
b101000000000000000000000010010000 \
b0 b
0c
b0 d
b0 -"
b10000000000000000000000000000000000000000000000000000000001100000000000000000000000000000110010000000000000000000000000010001000000000000000000000000000001001 h
b100000 %#
b10000000000 T
b100000 g
17
#21500
b10110 >
07
#22000
b10000000011000100 I"
b110000 &
b10000000011000000 A"
b10000000011000000 i"
b10000000011000000 0
b10000000011000000 3"
b10000000011000000 K"
b10000000011000000 g"
b100000 g
b10000000000 T
b100000 %#
17
#22500
b10000000000100100 I"
1t
0i
0n
b0 p
b10010010010010001001000101 q
b0 h
b110 r
b10000000011000100 8"
b10000000011000100 !#
b1111111111111110111111101001 z
b0 +
b0 s
b0 /"
b10 y
0-
b11 H"
b11 N"
b11 d"
b11111111111111101111111010011000 {
b11111111111111111111111101100100 .
b11111111111111111111111101100100 v
b11111111111111111111111101100100 1"
b11111111111111111111111101100100 D"
b11111111111111111111111101100100 W"
b11111111111111111111111101100100 e"
b0 G"
b0 L"
b100000 %#
1<"
1C"
0;"
b10 :"
b10 m"
1?"
b1111011 Y"
b111 Z"
b11111111111111111111111101100100 F"
b11111111111111111111111101100100 M"
b11111111111111111111111101100100 x"
b0 7"
b0 {"
b11111 }"
b10000000011001100 )
b10000000011001100 u
b10000000011001100 2"
b10000000011001100 6"
b10000000011001100 y"
b10000000011001100 |"
b101 ~"
b1 z"
b1101111 k"
b1111011111 X"
b111 f"
b10000000000100100 A"
b10000000000100100 i"
b11111111111111111111111101100100 >"
b11111111111111111111111101100100 h"
b11111111111111111111111101100100 v"
b11111111111111111111111101100100 w"
b11110110010111111111000011101111 6
b11110110010111111111000011101111 0"
b11110110010111111111000011101111 n"
b10111 >
07
#23000
b10000000000101000 8"
b10000000000101000 !#
b1111111110001000 I"
b1001 &
b1111111110001000 A"
b1111111110001000 i"
b10000000000100100 0
b10000000000100100 3"
b10000000000100100 K"
b10000000000100100 g"
b100000 %#
b10000000000 T
b100000 g
17
#23500
b1101101101101100100100010 q
b11 r
b1011111111111110111111110001 z
b0 y
b10111111111111111111111111011100 8"
b10111111111111111111111111011100 !#
b11 H"
b11 N"
b11 d"
b10111111111111101111111100010000 {
b10111111111111111111111111011100 .
b10111111111111111111111111011100 v
b10111111111111111111111111011100 1"
b10111111111111111111111111011100 D"
b10111111111111111111111111011100 W"
b10111111111111111111111111011100 e"
b10000000000101000 I"
b10111111111111111111111111110000 G"
b10111111111111111111111111110000 L"
b100000 %#
b11 E"
b11 ["
b11 l"
0<"
1C"
b0 :"
b0 m"
1?"
b1111111 Y"
b0 Z"
b11111111111111111111111111101100 F"
b11111111111111111111111111101100 M"
b11111111111111111111111111101100 x"
b10111111111111111111111111110000 7"
b10111111111111111111111111110000 {"
b10 }"
b0 )
b0 u
b0 2"
b0 6"
b0 y"
b0 |"
b1100 ~"
b10 z"
b10011 k"
b1111111000 X"
b0 f"
b10000000000010000 A"
b10000000000010000 i"
b11111111111111111111111111101100 >"
b11111111111111111111111111101100 h"
b11111111111111111111111111101100 v"
b11111111111111111111111111101100 w"
b11000 >
b11111110110000010000000100010011 6
b11111110110000010000000100010011 0"
b11111110110000010000000100010011 n"
07
#24000
b1 r
b10111111111111111111111111001000 8"
b10111111111111111111111111001000 !#
b1011111111111110111111101111 z
b11 y
b10000000000101100 I"
b10111111111111101111111011111100 {
b10111111111111111111111111001000 .
b10111111111111111111111111001000 v
b10111111111111111111111111001000 1"
b10111111111111111111111111001000 D"
b10111111111111111111111111001000 W"
b10111111111111111111111111001000 e"
b1010 &
b10111111111111111111111111011100 G"
b10111111111111111111111111011100 L"
b10000000000010100 A"
b10000000000010100 i"
b10000000000101000 0
b10000000000101000 3"
b10000000000101000 K"
b10000000000101000 g"
b10111111111111111111111111011100 7"
b10111111111111111111111111011100 {"
b100000 g
b10000000000 T
b100000 %#
17
#24500
1*
b100 r
b1 +"
b10111111111111111111111111101100 8"
b10111111111111111111111111101100 !#
b1011111111111110111111110010 z
b0 y
1-
04"
b11 H"
b11 N"
b11 d"
b10111111111111101111111100100000 {
b10111111111111111111111111101100 .
b10111111111111111111111111101100 v
b10111111111111111111111111101100 1"
b10111111111111111111111111101100 D"
b10111111111111111111111111101100 W"
b10111111111111111111111111101100 e"
b100000 %#
1(
19"
1C"
b0 E"
b0 ["
b0 l"
0?"
b0 Y"
b10 Z"
b10000 F"
b10000 M"
b10000 x"
b10000000011000100 )
b10000000011000100 u
b10000000011000100 2"
b10000000011000100 6"
b10000000011000100 y"
b10000000011000100 |"
b1 ~"
b10000 z"
b100011 k"
b10 X"
b10 f"
b10000000000111000 A"
b10000000000111000 i"
b10000 >"
b10000 h"
b10000 v"
b10000 w"
b100010010100000100011 6
b100010010100000100011 0"
b100010010100000100011 n"
b11001 >
07
#25000
1$
1/
13
b10111111111111111111111111101100 5
b10111111111111111111111111101100 H
b10111111111111111111111111101100 [
b10111111111111111111111111101100 l
b10111111111111111111111111101100 )"
b1011111111111110111111110010 ,"
14
b1 +"
b1 -"
b100000 %#
b10000000000 T
b100000 g
17
#25500
b11010 >
07
#26000
bx00000000000000000000000000000000 Y
b11111 ]
b1111100 ^
0U
b1111100 \
b10111111111111111111111111101100 b
1c
b10111111111111101111111100100000 I
b10111111111111111111111111101100 O
1P
b100000 g
b10000000000 T
b100000 %#
17
#26500
b11011 >
07
#27000
b1 Q
b1 d
b100000 %#
b10000000000 T
b100000 g
17
#27500
b11100 >
07
#28000
b10 d
b10 Q
b100000 g
b10000000000 T
b100000 %#
17
#28500
b11101 >
07
#29000
b11 Q
b11 d
b100000 %#
b10000000000 T
b100000 g
17
#29500
b11110 >
07
#30000
b100 d
b100 Q
b100000 g
b10000000000 T
b100000 %#
17
#30500
b11111 >
07
#31000
b101 Q
b101 d
b100000 %#
b10000000000 T
b100000 g
17
#31500
b100000 >
07
#32000
b110 d
b110 Q
b100000 g
b10000000000 T
b100000 %#
17
#32500
b100001 >
07
#33000
b111 Q
b111 d
b100000 %#
b10000000000 T
b100000 g
17
#33500
b100010 >
07
#34000
b1000 d
b1000 Q
b100000 g
b10000000000 T
b100000 %#
17
#34500
b100011 >
07
#35000
b1001 Q
b1001 d
b100000 %#
b10000000000 T
b100000 g
17
#35500
b100100 >
07
